…
``` r
valency %>% mutate(X = factor(X), Y = factor(Y), locus = factor(locus), valency_pattern = factor(valency_pattern))
```

    ## # A tibble: 16,770 × 6
    ##    language_no predicate_no X     Y     locus valency_pattern
    ##          <dbl>        <dbl> <fct> <fct> <fct> <fct>          
    ##  1          60            1 IO    ABS   X     IO_ABS         
    ##  2          60            2 *     *     *     <NA>           
    ##  3          60            3 ABS   MAL   Y     ABS_MAL        
    ##  4          60            4 ERG   ABS   TR    TR             
    ##  5          60            5 BEN   ABS   X     BEN_ABS        
    ##  6          60            6 ABS   IO    Y     ABS_IO         
    ##  7          60            7 ERG   BEN   Y     ERG_BEN        
    ##  8          60            8 ERG   ABS   TR    TR             
    ##  9          60            9 ERG   ABS   TR    TR             
    ## 10          60           10 *     *     *     <NA>           
    ## # ℹ 16,760 more rows
…
