…
### `select()`

<!--
The data set contains the details on age, birth date, gender, height, name, weight, medal counts, sport, and country and a few more variables. Not all of these variables are of interest for a specific research question and often one wants to have a "narrower" version of a data set which contains only the variables of immediate interest. 
&#10;To prepare such a version of your data set, use the function `select()` to select the variables (columns) you need.
-->

First, you can select the variables of interest just by naming them.
Note that this way you can also modify the order of the variables:

``` r
select(athletes, name, height, weight)
```

    ## # A tibble: 2,859 × 3
    ##    name              height weight
    ##    <chr>              <dbl>  <dbl>
    ##  1 Aaron Blunck        1.72     68
    ##  2 Aaron March         1.85     85
    ##  3 Abzal Azhgaliyev    1.78     68
    ##  4 Abzal Rakimgaliev   1.68     NA
    ##  5 Adam Barwood        1.86     82
    ##  6 Adam Cieslar        1.75     57
    ##  7 Adam Lamhamedi      1.7      76
    ##  8 Adam Zampa          1.78     80
    ##  9 Adelina Sotnikova   1.63     NA
    ## 10 Adeline Baud        1.62     56
    ## # ℹ 2,849 more rows

- You can use `:` to select all columns in a range between two specified
  columns (inclusively):

``` r
select(athletes, age:weight)
```

    ## # A tibble: 2,859 × 6
    ##      age birthdate  gender height name              weight
    ##    <dbl> <date>     <fct>   <dbl> <chr>              <dbl>
    ##  1    17 1996-04-12 Male     1.72 Aaron Blunck          68
    ##  2    27 1986-05-14 Male     1.85 Aaron March           85
    ##  3    21 1992-06-30 Male     1.78 Abzal Azhgaliyev      68
    ##  4    21 1992-05-25 Male     1.68 Abzal Rakimgaliev     NA
    ##  5    21 1992-07-30 Male     1.86 Adam Barwood          82
    ##  6    21 1992-12-18 Male     1.75 Adam Cieslar          57
    ##  7    18 1995-04-22 Male     1.7  Adam Lamhamedi        76
    ##  8    23 1990-09-13 Male     1.78 Adam Zampa            80
    ##  9    17 1996-07-01 Female   1.63 Adelina Sotnikova     NA
    ## 10    21 1992-09-28 Female   1.62 Adeline Baud          56
    ## # ℹ 2,849 more rows

- You can exclude a variable with the help of `-`.

``` r
select(athletes, -birthdate, -age)
```

    ## # A tibble: 2,859 × 10
    ##    gender height name             weight gold_medals silver_medals bronze_medals
    ##    <fct>   <dbl> <chr>             <dbl>       <dbl>         <dbl>         <dbl>
    ##  1 Male     1.72 Aaron Blunck         68           0             0             0
    ##  2 Male     1.85 Aaron March          85           0             0             0
    ##  3 Male     1.78 Abzal Azhgaliyev     68           0             0             0
    ##  4 Male     1.68 Abzal Rakimgali…     NA           0             0             0
    ##  5 Male     1.86 Adam Barwood         82           0             0             0
    ##  6 Male     1.75 Adam Cieslar         57           0             0             0
    ##  7 Male     1.7  Adam Lamhamedi       76           0             0             0
    ##  8 Male     1.78 Adam Zampa           80           0             0             0
    ##  9 Female   1.63 Adelina Sotniko…     NA           0             0             0
    ## 10 Female   1.62 Adeline Baud         56           0             0             0
    ## # ℹ 2,849 more rows
    ## # ℹ 3 more variables: total_medals <dbl>, sport <fct>, country <fct>

Note that `dplyr` functions never modify their input data frames. If you
want to save the result e.g., of the `select()`function, you need to use
the assignment operator `<-` and either overwrite the original data
frame or create a new one.

For instance, here the original data frame remains unchanged:

``` r
select(athletes, birthdate, age)
```

    ## # A tibble: 2,859 × 2
    ##    birthdate    age
    ##    <date>     <dbl>
    ##  1 1996-04-12    17
    ##  2 1986-05-14    27
    ##  3 1992-06-30    21
    ##  4 1992-05-25    21
    ##  5 1992-07-30    21
    ##  6 1992-12-18    21
    ##  7 1995-04-22    18
    ##  8 1990-09-13    23
    ##  9 1996-07-01    17
    ## 10 1992-09-28    21
    ## # ℹ 2,849 more rows

``` r
athletes
```

    ## # A tibble: 2,859 × 12
    ##      age birthdate  gender height name          weight gold_medals silver_medals
    ##    <dbl> <date>     <fct>   <dbl> <chr>          <dbl>       <dbl>         <dbl>
    ##  1    17 1996-04-12 Male     1.72 Aaron Blunck      68           0             0
    ##  2    27 1986-05-14 Male     1.85 Aaron March       85           0             0
    ##  3    21 1992-06-30 Male     1.78 Abzal Azhgal…     68           0             0
    ##  4    21 1992-05-25 Male     1.68 Abzal Rakimg…     NA           0             0
    ##  5    21 1992-07-30 Male     1.86 Adam Barwood      82           0             0
    ##  6    21 1992-12-18 Male     1.75 Adam Cieslar      57           0             0
    ##  7    18 1995-04-22 Male     1.7  Adam Lamhame…     76           0             0
    ##  8    23 1990-09-13 Male     1.78 Adam Zampa        80           0             0
    ##  9    17 1996-07-01 Female   1.63 Adelina Sotn…     NA           0             0
    ## 10    21 1992-09-28 Female   1.62 Adeline Baud      56           0             0
    ## # ℹ 2,849 more rows
    ## # ℹ 4 more variables: bronze_medals <dbl>, total_medals <dbl>, sport <fct>,
    ## #   country <fct>

And here we create a new data frame (table) with the selected columns
only:

``` r
athletes_age <- select(athletes, birthdate, age)
athletes_age
```

    ## # A tibble: 2,859 × 2
    ##    birthdate    age
    ##    <date>     <dbl>
    ##  1 1996-04-12    17
    ##  2 1986-05-14    27
    ##  3 1992-06-30    21
    ##  4 1992-05-25    21
    ##  5 1992-07-30    21
    ##  6 1992-12-18    21
    ##  7 1995-04-22    18
    ##  8 1990-09-13    23
    ##  9 1996-07-01    17
    ## 10 1992-09-28    21
    ## # ℹ 2,849 more rows

<!--
There are a number of **helper functions** you can use within `select()`. Try to guess what they do before executing the commands:
&#10;1. **`ends_with()`**
&#10;
```r
select(athletes, ends_with("medals"))
```
&#10;```
## # A tibble: 2,859 × 4
##    gold_medals silver_medals bronze_medals total_medals
##          <dbl>         <dbl>         <dbl>        <dbl>
##  1           0             0             0            0
##  2           0             0             0            0
##  3           0             0             0            0
##  4           0             0             0            0
##  5           0             0             0            0
##  6           0             0             0            0
##  7           0             0             0            0
##  8           0             0             0            0
##  9           0             0             0            0
## 10           0             0             0            0
## # ℹ 2,849 more rows
```
&#10;2. **`contains()`**
&#10;
```r
select(athletes, contains("eigh"))
```
&#10;```
## # A tibble: 2,859 × 2
##    height weight
##     <dbl>  <dbl>
##  1   1.72     68
##  2   1.85     85
##  3   1.78     68
##  4   1.68     NA
##  5   1.86     82
##  6   1.75     57
##  7   1.7      76
##  8   1.78     80
##  9   1.63     NA
## 10   1.62     56
## # ℹ 2,849 more rows
```
…
First, create with `select()` a narrow data set `athletes_narrow` which
only contains the variables `name`, `gender`, `age`, `sport`, `height`,
and `weight`. (Here, we add a few more columns than we need now, because
we plan to use `athletes_narrow` later).

``` r
athletes_narrow <- select(athletes, name, gender, age, sport, height, weight)
athletes_narrow
```

    ## # A tibble: 2,859 × 6
    ##    name              gender   age sport            height weight
    ##    <chr>             <fct>  <dbl> <fct>             <dbl>  <dbl>
    ##  1 Aaron Blunck      Male      17 Freestyle Skiing   1.72     68
    ##  2 Aaron March       Male      27 Snowboard          1.85     85
    ##  3 Abzal Azhgaliyev  Male      21 Short Track        1.78     68
    ##  4 Abzal Rakimgaliev Male      21 Figure Skating     1.68     NA
    ##  5 Adam Barwood      Male      21 Alpine Skiing      1.86     82
    ##  6 Adam Cieslar      Male      21 Nordic Combined    1.75     57
    ##  7 Adam Lamhamedi    Male      18 Alpine Skiing      1.7      76
    ##  8 Adam Zampa        Male      23 Alpine Skiing      1.78     80
    ##  9 Adelina Sotnikova Female    17 Figure Skating     1.63     NA
    ## 10 Adeline Baud      Female    21 Alpine Skiing      1.62     56
    ## # ℹ 2,849 more rows

Next, add the column BMI (body mass index). The BMI is calculated as the
body mass (`weight`) divided by the square of the body `height`. It is
universally expressed in units of kg/m<sup>2</sup>.

``` r
mutate(athletes_narrow, BMI = weight/height^2)
```

    ## # A tibble: 2,859 × 7
    ##    name              gender   age sport            height weight   BMI
    ##    <chr>             <fct>  <dbl> <fct>             <dbl>  <dbl> <dbl>
    ##  1 Aaron Blunck      Male      17 Freestyle Skiing   1.72     68  23.0
    ##  2 Aaron March       Male      27 Snowboard          1.85     85  24.8
    ##  3 Abzal Azhgaliyev  Male      21 Short Track        1.78     68  21.5
    ##  4 Abzal Rakimgaliev Male      21 Figure Skating     1.68     NA  NA  
    ##  5 Adam Barwood      Male      21 Alpine Skiing      1.86     82  23.7
    ##  6 Adam Cieslar      Male      21 Nordic Combined    1.75     57  18.6
    ##  7 Adam Lamhamedi    Male      18 Alpine Skiing      1.7      76  26.3
    ##  8 Adam Zampa        Male      23 Alpine Skiing      1.78     80  25.2
    ##  9 Adelina Sotnikova Female    17 Figure Skating     1.63     NA  NA  
    ## 10 Adeline Baud      Female    21 Alpine Skiing      1.62     56  21.3
    ## # ℹ 2,849 more rows

Notice that `mutate` does not overwrite the existing data frame.

``` r
mutate(athletes_narrow, BMI = weight/height^2)
```

    ## # A tibble: 2,859 × 7
    ##    name              gender   age sport            height weight   BMI
    ##    <chr>             <fct>  <dbl> <fct>             <dbl>  <dbl> <dbl>
    ##  1 Aaron Blunck      Male      17 Freestyle Skiing   1.72     68  23.0
    ##  2 Aaron March       Male      27 Snowboard          1.85     85  24.8
    ##  3 Abzal Azhgaliyev  Male      21 Short Track        1.78     68  21.5
    ##  4 Abzal Rakimgaliev Male      21 Figure Skating     1.68     NA  NA  
    ##  5 Adam Barwood      Male      21 Alpine Skiing      1.86     82  23.7
    ##  6 Adam Cieslar      Male      21 Nordic Combined    1.75     57  18.6
    ##  7 Adam Lamhamedi    Male      18 Alpine Skiing      1.7      76  26.3
    ##  8 Adam Zampa        Male      23 Alpine Skiing      1.78     80  25.2
    ##  9 Adelina Sotnikova Female    17 Figure Skating     1.63     NA  NA  
    ## 10 Adeline Baud      Female    21 Alpine Skiing      1.62     56  21.3
    ## # ℹ 2,849 more rows

``` r
athletes_narrow
```

    ## # A tibble: 2,859 × 6
    ##    name              gender   age sport            height weight
    ##    <chr>             <fct>  <dbl> <fct>             <dbl>  <dbl>
    ##  1 Aaron Blunck      Male      17 Freestyle Skiing   1.72     68
    ##  2 Aaron March       Male      27 Snowboard          1.85     85
    ##  3 Abzal Azhgaliyev  Male      21 Short Track        1.78     68
    ##  4 Abzal Rakimgaliev Male      21 Figure Skating     1.68     NA
    ##  5 Adam Barwood      Male      21 Alpine Skiing      1.86     82
    ##  6 Adam Cieslar      Male      21 Nordic Combined    1.75     57
    ##  7 Adam Lamhamedi    Male      18 Alpine Skiing      1.7      76
    ##  8 Adam Zampa        Male      23 Alpine Skiing      1.78     80
    ##  9 Adelina Sotnikova Female    17 Figure Skating     1.63     NA
    ## 10 Adeline Baud      Female    21 Alpine Skiing      1.62     56
    ## # ℹ 2,849 more rows

To add the new column to it permanently, you have to overwrite the
original data frame:

``` r
athletes_narrow <- mutate(athletes_narrow, BMI = weight/height^2)
athletes_narrow
```

    ## # A tibble: 2,859 × 7
    ##    name              gender   age sport            height weight   BMI
    ##    <chr>             <fct>  <dbl> <fct>             <dbl>  <dbl> <dbl>
    ##  1 Aaron Blunck      Male      17 Freestyle Skiing   1.72     68  23.0
    ##  2 Aaron March       Male      27 Snowboard          1.85     85  24.8
    ##  3 Abzal Azhgaliyev  Male      21 Short Track        1.78     68  21.5
    ##  4 Abzal Rakimgaliev Male      21 Figure Skating     1.68     NA  NA  
    ##  5 Adam Barwood      Male      21 Alpine Skiing      1.86     82  23.7
    ##  6 Adam Cieslar      Male      21 Nordic Combined    1.75     57  18.6
    ##  7 Adam Lamhamedi    Male      18 Alpine Skiing      1.7      76  26.3
    ##  8 Adam Zampa        Male      23 Alpine Skiing      1.78     80  25.2
    ##  9 Adelina Sotnikova Female    17 Figure Skating     1.63     NA  NA  
    ## 10 Adeline Baud      Female    21 Alpine Skiing      1.62     56  21.3
    ## # ℹ 2,849 more rows
…
    ## # A tibble: 2 × 2
    ##   color total
    ##   <chr> <dbl>
    ## 1 black     7
    ## 2 blue      8

We can also use `group_by` on the athletes data. For example, how many
gold medals per country?

``` r
athletes %>% group_by(country) %>% summarize(gold_medals = sum(gold_medals))
```

    ## # A tibble: 88 × 2
    ##    country    gold_medals
    ##    <fct>            <dbl>
    ##  1 Albania              0
    ##  2 Andorra              0
    ##  3 Argentina            0
    ##  4 Armenia              0
    ##  5 Australia            0
    ##  6 Austria              2
    ##  7 Azerbaijan           0
    ##  8 Belarus              5
    ##  9 Belgium              0
    ## 10 Bermuda              0
    ## # ℹ 78 more rows

Maybe for viewing purposes it’s better to arrange them by number of gold
medals instead of alphabetically by country name.

``` r
athletes %>% group_by(country) %>% summarize(gold_medals = sum(gold_medals)) %>% arrange(desc(gold_medals))
```

    ## # A tibble: 88 × 2
    ##    country       gold_medals
    ##    <fct>               <dbl>
    ##  1 Russian Fed.           16
    ##  2 Germany                15
    ##  3 Sweden                  8
    ##  4 Norway                  7
    ##  5 Korea                   6
    ##  6 Netherlands             6
    ##  7 United States           6
    ##  8 Belarus                 5
    ##  9 Switzerland             5
    ## 10 Canada                  4
    ## # ℹ 78 more rows

As we continue to [pipe](https://r4ds.had.co.nz/pipes.html) commands
together, i.e., putting multiple operations (aka dplyr verbs) together –
we can use [white
space](https://en.wikipedia.org/wiki/Whitespace_character) to style the
code. More on style below.

``` r
athletes %>% 
  group_by(country) %>% 
  summarize(gold_medals = sum(gold_medals)) %>% 
  arrange(desc(gold_medals))
```

    ## # A tibble: 88 × 2
    ##    country       gold_medals
    ##    <fct>               <dbl>
    ##  1 Russian Fed.           16
    ##  2 Germany                15
    ##  3 Sweden                  8
    ##  4 Norway                  7
    ##  5 Korea                   6
    ##  6 Netherlands             6
    ##  7 United States           6
    ##  8 Belarus                 5
    ##  9 Switzerland             5
    ## 10 Canada                  4
    ## # ℹ 78 more rows
…
Let’s filter the rows in `athletes` that do not have a height value,
i.e., they are `NA` in the table.

``` r
athletes %>% filter(is.na(height))
```

    ## # A tibble: 139 × 12
    ##      age birthdate  gender height name          weight gold_medals silver_medals
    ##    <dbl> <date>     <fct>   <dbl> <chr>          <dbl>       <dbl>         <dbl>
    ##  1    25 1988-05-12 Female     NA Aja Evans         NA           0             0
    ##  2    21 1992-09-21 Male       NA Aleksander A…     NA           0             0
    ##  3    24 1989-05-28 Male       NA Alexey Negod…     NA           0             0
    ##  4    20 1993-05-08 Female     NA Anastasiya N…     NA           0             0
    ##  5    22 1991-05-13 Male       NA Anders Fanne…     NA           0             0
    ##  6    27 1986-05-22 Male       NA Anders Gloee…     NA           0             0
    ##  7    28 1985-10-24 Female     NA Angeli Vanla…     NA           0             0
    ##  8    31 1982-11-06 Female     NA Ann Kristin …     NA           0             0
    ##  9    15 1998-03-31 Female     NA Anna Seidel       43           0             0
    ## 10    23 1991-02-05 Female     NA Anna Sloan        NA           0             0
    ## # ℹ 129 more rows
    ## # ℹ 4 more variables: bronze_medals <dbl>, total_medals <dbl>, sport <fct>,
    ## #   country <fct>

You can also filter to **remove** `NA`s, which is often useful for when
you want to visualize the data. Use the logical operation `!` mentioned
above, i.e., “not”.

``` r
athletes %>% filter(!is.na(height))
```

    ## # A tibble: 2,720 × 12
    ##      age birthdate  gender height name          weight gold_medals silver_medals
    ##    <dbl> <date>     <fct>   <dbl> <chr>          <dbl>       <dbl>         <dbl>
    ##  1    17 1996-04-12 Male     1.72 Aaron Blunck      68           0             0
    ##  2    27 1986-05-14 Male     1.85 Aaron March       85           0             0
    ##  3    21 1992-06-30 Male     1.78 Abzal Azhgal…     68           0             0
    ##  4    21 1992-05-25 Male     1.68 Abzal Rakimg…     NA           0             0
    ##  5    21 1992-07-30 Male     1.86 Adam Barwood      82           0             0
    ##  6    21 1992-12-18 Male     1.75 Adam Cieslar      57           0             0
    ##  7    18 1995-04-22 Male     1.7  Adam Lamhame…     76           0             0
    ##  8    23 1990-09-13 Male     1.78 Adam Zampa        80           0             0
    ##  9    17 1996-07-01 Female   1.63 Adelina Sotn…     NA           0             0
    ## 10    21 1992-09-28 Female   1.62 Adeline Baud      56           0             0
    ## # ℹ 2,710 more rows
    ## # ℹ 4 more variables: bronze_medals <dbl>, total_medals <dbl>, sport <fct>,
    ## #   country <fct>

You can also combined the filters. For example, if you want all rows in
`athletes` that do not have `NA` values for `height` and `weight`.
Notice how the number of rows decreases.

``` r
athletes %>% filter(!is.na(height)) %>% filter(!is.na(weight))
```

    ## # A tibble: 2,479 × 12
    ##      age birthdate  gender height name          weight gold_medals silver_medals
    ##    <dbl> <date>     <fct>   <dbl> <chr>          <dbl>       <dbl>         <dbl>
    ##  1    17 1996-04-12 Male     1.72 Aaron Blunck      68           0             0
    ##  2    27 1986-05-14 Male     1.85 Aaron March       85           0             0
    ##  3    21 1992-06-30 Male     1.78 Abzal Azhgal…     68           0             0
    ##  4    21 1992-07-30 Male     1.86 Adam Barwood      82           0             0
    ##  5    21 1992-12-18 Male     1.75 Adam Cieslar      57           0             0
    ##  6    18 1995-04-22 Male     1.7  Adam Lamhame…     76           0             0
    ##  7    23 1990-09-13 Male     1.78 Adam Zampa        80           0             0
    ##  8    21 1992-09-28 Female   1.62 Adeline Baud      56           0             0
    ##  9    21 1992-11-22 Male     1.86 Adrian Krain…     75           0             0
    ## 10    21 1992-08-07 Male     1.78 Adrien Backs…     73           0             0
    ## # ℹ 2,469 more rows
    ## # ℹ 4 more variables: bronze_medals <dbl>, total_medals <dbl>, sport <fct>,
    ## #   country <fct>
…
