…
Load the data.

``` r
df <- read_csv('data/Background questionnaire (Answers) - Risposte del modulo 1.csv')
```

Have a look.

``` r
df
```

    ## # A tibble: 30 × 9
    ##       ID Do you have any program…¹ If so, please rate y…² Do you have any back…³
    ##    <dbl> <chr>                                      <dbl> <chr>                 
    ##  1     1 Yes                                            1 Yes                   
    ##  2     2 Yes                                            2 Yes                   
    ##  3     3 Yes                                            4 Yes                   
    ##  4     4 Yes                                            2 Yes                   
    ##  5     5 Yes                                            2 Yes                   
    ##  6     6 Yes                                            4 Yes                   
    ##  7     7 No                                            NA Yes                   
    ##  8     8 Yes                                            1 No                    
    ##  9     9 No                                            NA Yes                   
    ## 10    10 No                                            NA No                    
    ## # ℹ 20 more rows
    ## # ℹ abbreviated names: ¹​`Do you have any programming (coding) experience?`,
    ## #   ²​`If so, please rate your programming knowledge`,
    ## #   ³​`Do you have any background in statistics?`
    ## # ℹ 5 more variables: `If so, please rate your knowledge of statistics` <dbl>,
    ## #   `Have you used R?` <chr>, `If so, please rate your R expertise` <dbl>,
    ## #   `Do you have any fieldwork experience?` <chr>, …
…
