…
# Exploring the data

We can use the `dplyr` functions to explore the data. See the [athletes
file](athletes.md) for examples.

- Select the language, genus, and phoneme count columns.

``` r
# Insert your code below here
genus_phonemes <- select(df, genus, phonemes)
genus_phonemes
```

    ## # A tibble: 969 × 2
    ##    genus        phonemes
    ##    <fct>           <dbl>
    ##  1 Biu-Mandara        36
    ##  2 Upper Sepik        14
    ##  3 Kwa                39
    ##  4 Middle Sepik       24
    ##  5 Malayic            55
    ##  6 Palaihnihan        23
    ##  7 <NA>               39
    ##  8 Kwa                31
    ##  9 Greater Alor       40
    ## 10 Oceanic            25
    ## # ℹ 959 more rows

- Arrange those columns by largest to smallest phoneme inventory size.

``` r
# Insert your code below here
phonemes_from_large <- arrange(df, -phonemes)
phonemes_from_large
```

    ## # A tibble: 969 × 12
    ##    language genus      fam   phonemes   con   son   obs   vow monoph   qua   ton
    ##    <fct>    <fct>      <fct>    <dbl> <dbl> <dbl> <dbl> <dbl>  <dbl> <dbl> <dbl>
    ##  1 ktz      Northern … khoi       141    95    21    74    46     24     7     0
    ##  2 hin      Indic      ieur        94    71    16    55    23     19     6     0
    ##  3 aqc      Lezgic     ncau        91    81    32    49    10     10    10     0
    ##  4 yey      Bantoid    ncon        90    77    18    59    13     13     5     0
    ##  5 skr      <NA>       ieur        83    48    15    33    35     18     9     0
    ##  6 bav      Bantoid    ncon        82    56    34    22    17     17     9     9
    ##  7 ary      Semitic    afas        78    74    19    55     4      4     3     0
    ##  8 prk      Palaung-K… ausa        77    34    17    17    43     18    18     0
    ##  9 bkm      Bantoid    ncon        75    59    30    29     9      9     9     7
    ## 10 pan      Indic      ieur        73    50    14    36    20     20    10     3
    ## # ℹ 959 more rows
    ## # ℹ 1 more variable: population <dbl>
…
``` r
# no langauges that has consonants more than 100
```

- Which language has the least number of vowels?

``` r
# Insert your code below here
min_vow <- arrange(df, vow)
# you could check the whole data file
min_vow
```

    ## # A tibble: 969 × 12
    ##    language genus      fam   phonemes   con   son   obs   vow monoph   qua   ton
    ##    <fct>    <fct>      <fct>    <dbl> <dbl> <dbl> <dbl> <dbl>  <dbl> <dbl> <dbl>
    ##  1 cuv      <NA>       afas        29    27    10    17     2      2     2     0
    ##  2 gnd      <NA>       afas        34    29    11    18     2      2     2     3
    ##  3 aer      Pama-Nyun… aust        30    27    15    12     3      3     3     0
    ##  4 akl      Meso-Phil… anes        20    17     7    10     3      3     3     0
    ##  5 alc      Alacalufan alac        19    16     6    10     3      3     3     0
    ##  6 are      Pama-Nyun… aust        29    26    20     6     3      3     3     0
    ##  7 blc      Bella Coo… sali        31    28     7    21     3      3     3     0
    ##  8 cad      Caddoan    cadd        23    20    11     9     3      3     3     0
    ##  9 dbl      Pama-Nyun… aust        16    13     9     4     3      3     3     0
    ## 10 duj      Pama-Nyun… aust        23    20    13     7     3      3     3     0
    ## # ℹ 959 more rows
    ## # ℹ 1 more variable: population <dbl>
…
no_ton_count
```

    ## [1] 728

``` r
# another way to calculate is to use filter
filter(df, ton == 0)
```

    ## # A tibble: 728 × 12
    ##    language genus      fam   phonemes   con   son   obs   vow monoph   qua   ton
    ##    <fct>    <fct>      <fct>    <dbl> <dbl> <dbl> <dbl> <dbl>  <dbl> <dbl> <dbl>
    ##  1 aal      Biu-Manda… afas        36    27     6    21     9      9     9     0
    ##  2 aau      Upper Sep… sepr        14     9     5     4     5      5     5     0
    ##  3 abi      Kwa        ncon        39    21     7    14    18     18     9     0
    ##  4 abt      Middle Se… sepr        24    17    12     5     7      7     6     0
    ##  5 ace      Malayic    anes        55    21     8    13    34     17    10     0
    ##  6 acv      Palaihnih… hoka        23    17     6    11     6      6     6     0
    ##  7 adn      Greater A… trng        40    18     6    12    22     12     7     0
    ##  8 adz      Oceanic    anes        25    18     6    12     7      7     4     0
    ##  9 aer      Pama-Nyun… aust        30    27    15    12     3      3     3     0
    ## 10 aey      Madang     trng        20    15     4    11     5      5     5     0
    ## # ℹ 718 more rows
    ## # ℹ 1 more variable: population <dbl>
…
